%!PS-Adobe-3.0 EPSF-3.0
%%DocumentNeededResources: font Helvetica
%%+ font Helvetica-Bold
%%+ font Helvetica-Oblique
%%+ font Helvetica-BoldOblique
%%+ font Symbol
%%Title: R Graphics Output
%%Creator: R Software
%%Pages: (atend)
%%BoundingBox: 0 0 750 819
%%EndComments
%%BeginProlog
/bp  { gs sRGB gs } def
% begin .ps.prolog
/gs  { gsave } bind def
/gr  { grestore } bind def
/ep  { showpage gr gr } bind def
/m   { moveto } bind def
/l  { rlineto } bind def
/np  { newpath } bind def
/cp  { closepath } bind def
/f   { fill } bind def
/o   { stroke } bind def
/c   { newpath 0 360 arc } bind def
/r   { 4 2 roll moveto 1 copy 3 -1 roll exch 0 exch rlineto 0 rlineto -1 mul 0 exch rlineto closepath } bind def
/p1  { stroke } bind def
/p2  { gsave bg fill grestore newpath } bind def
/p3  { gsave bg fill grestore stroke } bind def
/p6  { gsave bg eofill grestore newpath } bind def
/p7  { gsave bg eofill grestore stroke } bind def
/t   { 5 -2 roll moveto gsave rotate
       1 index stringwidth pop
       mul neg 0 rmoveto show grestore } bind def
/ta  { 4 -2 roll moveto gsave rotate show } bind def
/tb  { 2 -1 roll 0 rmoveto show } bind def
/cl  { grestore gsave newpath 3 index 3 index moveto 1 index
       4 -1 roll lineto  exch 1 index lineto lineto
       closepath clip newpath } bind def
/rgb { setrgbcolor } bind def
/s   { scalefont setfont } bind def
% end   .ps.prolog
/sRGB { [ /CIEBasedABC
          << /DecodeLMN
               [ { dup 0.03928 le
                        {12.92321 div}
                        {0.055 add 1.055 div 2.4 exp }
                     ifelse
                 } bind dup dup
               ]
             /MatrixLMN [0.412457 0.212673 0.019334
                         0.357576 0.715152 0.119192
                         0.180437 0.072175 0.950301]
             /WhitePoint [0.9505 1.0 1.0890]
           >>
         ] setcolorspace } bind def
/srgb { setcolor } bind def
%%IncludeResource: font Helvetica
/Helvetica findfont
dup length dict begin
  {1 index /FID ne {def} {pop pop} ifelse} forall
  /Encoding ISOLatin1Encoding def
  currentdict
  end
/Font1 exch definefont pop
%%IncludeResource: font Helvetica-Bold
/Helvetica-Bold findfont
dup length dict begin
  {1 index /FID ne {def} {pop pop} ifelse} forall
  /Encoding ISOLatin1Encoding def
  currentdict
  end
/Font2 exch definefont pop
%%IncludeResource: font Helvetica-Oblique
/Helvetica-Oblique findfont
dup length dict begin
  {1 index /FID ne {def} {pop pop} ifelse} forall
  /Encoding ISOLatin1Encoding def
  currentdict
  end
/Font3 exch definefont pop
%%IncludeResource: font Helvetica-BoldOblique
/Helvetica-BoldOblique findfont
dup length dict begin
  {1 index /FID ne {def} {pop pop} ifelse} forall
  /Encoding ISOLatin1Encoding def
  currentdict
  end
/Font4 exch definefont pop
%%IncludeResource: font Symbol
/Symbol findfont
dup length dict begin
  {1 index /FID ne {def} {pop pop} ifelse} forall
  currentdict
  end
/Font5 exch definefont pop
%%EndProlog
%%Page: 1 1
bp
/bg { 1 1 1 srgb } def
0.00 0.00 750.00 819.00 r p2
0.00 0.00 750.00 819.00 cl
0 0 0 srgb
0.75 setlinewidth
[] 0 setdash
1 setlinecap
1 setlinejoin
10.00 setmiterlimit
np
60.15 670.22 m
139.30 53.98 l
139.31 21.50 l
o
/Font2 findfont 16 s
90.09 798.32 (Number of Bing) 0 ta
0.160 (e Occasions ) tb gr
152.32 779.19 ( per 30 Da) 0 ta
-0.320 (ys) tb gr
/Font1 findfont 13 s
199.45 425.04 (Month) .5 0 t
10.76 620.23 (Binge Occasions) .5 90 t
0.75 setlinewidth
[ 2.25 3.75] 0 setdash
np
60.15 540.11 m
139.30 25.43 l
139.31 -49.84 l
o
0.75 setlinewidth
[] 0 setdash
np
60.15 470.46 m
278.61 0 l
o
np
60.15 470.46 m
0 -5.98 l
o
np
199.45 470.46 m
0 -5.98 l
o
np
338.76 470.46 m
0 -5.98 l
o
34.14 448.94 (F) 0 ta
-0.390 (ebr) tb
0.195 (uar) tb
0.390 (y) tb gr
199.45 448.94 (March) .5 0 t
325.76 448.94 (Apr) 0 ta
0.195 (il) tb gr
np
49.00 481.55 m
0 277.35 l
o
np
49.00 481.55 m
-5.97 0 l
o
np
49.00 521.17 m
-5.97 0 l
o
np
49.00 560.79 m
-5.97 0 l
o
np
49.00 600.42 m
-5.97 0 l
o
np
49.00 640.04 m
-5.97 0 l
o
np
49.00 679.66 m
-5.97 0 l
o
np
49.00 719.28 m
-5.97 0 l
o
np
49.00 758.90 m
-5.97 0 l
o
34.66 481.55 (0.9) .5 90 t
34.66 521.17 (1.0) .5 90 t
34.66 560.79 (1.1) .5 90 t
34.66 600.42 (1.2) .5 90 t
34.66 640.04 (1.3) .5 90 t
34.66 679.66 (1.4) .5 90 t
34.66 719.28 (1.5) .5 90 t
34.66 758.90 (1.6) .5 90 t
0.00 0.00 750.00 819.00 cl
0.00 0.00 750.00 819.00 cl
0 0 0 srgb
0.75 setlinewidth
[] 0 setdash
1 setlinecap
1 setlinejoin
10.00 setmiterlimit
np
435.15 670.28 m
139.30 7.12 l
139.31 -4.70 l
o
/Font2 findfont 16 s
477.10 798.32 (Pr) 0 ta
-0.320 (obability of Drinking in ) tb gr
522.87 779.19 ( P) 0 ta
-0.480 (ast 30 Da) tb
-0.320 (ys) tb gr
/Font1 findfont 13 s
574.45 425.04 (Month) .5 0 t
385.76 585.56 (Pr\(Dr) 90 ta
0.195 (inking\)) tb gr
0.75 setlinewidth
[ 2.25 3.75] 0 setdash
np
435.15 570.76 m
139.30 -28.28 l
139.31 10.36 l
o
0.75 setlinewidth
[] 0 setdash
np
435.15 470.46 m
278.61 0 l
o
np
435.15 470.46 m
0 -5.98 l
o
np
574.45 470.46 m
0 -5.98 l
o
np
713.76 470.46 m
0 -5.98 l
o
409.14 448.94 (F) 0 ta
-0.390 (ebr) tb
0.195 (uar) tb
0.390 (y) tb gr
574.45 448.94 (March) .5 0 t
700.76 448.94 (Apr) 0 ta
0.195 (il) tb gr
np
424.00 481.55 m
0 277.35 l
o
np
424.00 481.55 m
-5.97 0 l
o
np
424.00 537.02 m
-5.97 0 l
o
np
424.00 592.49 m
-5.97 0 l
o
np
424.00 647.96 m
-5.97 0 l
o
np
424.00 703.43 m
-5.97 0 l
o
np
424.00 758.90 m
-5.97 0 l
o
409.66 481.55 (0.60) .5 90 t
409.66 537.02 (0.62) .5 90 t
409.66 592.49 (0.64) .5 90 t
409.66 647.96 (0.66) .5 90 t
409.66 703.43 (0.68) .5 90 t
409.66 758.90 (0.70) .5 90 t
0.00 0.00 750.00 819.00 cl
0.00 0.00 750.00 819.00 cl
0 0 0 srgb
0.75 setlinewidth
[] 0 setdash
1 setlinecap
1 setlinejoin
10.00 setmiterlimit
np
60.15 234.37 m
139.30 60.84 l
139.31 18.54 l
o
/Font2 findfont 16 s
76.31 388.82 (Number of Alcoholic Be) 0 ta
-0.240 (vera) tb
-0.160 (g) tb
0.160 (es ) tb gr
138.53 369.69 ( in P) 0 ta
-0.480 (ast 30 Da) tb
-0.320 (ys) tb gr
/Font1 findfont 13 s
199.45 15.54 (Month) .5 0 t
10.76 160.16 (Number of Dr) 90 ta
0.195 (inks) tb gr
0.75 setlinewidth
[ 2.25 3.75] 0 setdash
np
60.15 133.66 m
139.30 36.54 l
139.31 -50.95 l
o
0.75 setlinewidth
[] 0 setdash
np
60.15 60.96 m
278.61 0 l
o
np
60.15 60.96 m
0 -5.98 l
o
np
199.45 60.96 m
0 -5.98 l
o
np
338.76 60.96 m
0 -5.98 l
o
34.14 39.44 (F) 0 ta
-0.390 (ebr) tb
0.195 (uar) tb
0.390 (y) tb gr
199.45 39.44 (March) .5 0 t
325.76 39.44 (Apr) 0 ta
0.195 (il) tb gr
np
49.00 72.05 m
0 277.35 l
o
np
49.00 72.05 m
-5.97 0 l
o
np
49.00 164.50 m
-5.97 0 l
o
np
49.00 256.95 m
-5.97 0 l
o
np
49.00 349.40 m
-5.97 0 l
o
34.66 72.05 (15) .5 90 t
34.66 164.50 (20) .5 90 t
34.66 256.95 (25) .5 90 t
34.66 349.40 (30) .5 90 t
np
450.87 282.97 m
84.92 0 l
o
0.75 setlinewidth
[ 2.25 3.75] 0 setdash
np
450.87 238.68 m
84.92 0 l
o
578.26 278.30 (Big Six) 0 0 t
578.26 234.01 (Control) 0 0 t
ep
%%Trailer
%%Pages: 1
%%EOF
