\beamer@endinputifotherversion {3.33pt}
\headcommand {\slideentry {0}{0}{1}{1/1}{}{0}}
\headcommand {\beamer@framepages {1}{1}}
\headcommand {\slideentry {0}{0}{2}{2/2}{}{0}}
\headcommand {\beamer@framepages {2}{2}}
\headcommand {\slideentry {0}{0}{3}{3/4}{}{0}}
\headcommand {\beamer@framepages {3}{4}}
\headcommand {\slideentry {0}{0}{4}{5/5}{}{0}}
\headcommand {\beamer@framepages {5}{5}}
\headcommand {\beamer@partpages {1}{5}}
\headcommand {\beamer@subsectionpages {1}{5}}
\headcommand {\beamer@sectionpages {1}{5}}
\headcommand {\beamer@documentpages {5}}
\headcommand {\def \inserttotalframenumber {4}}
