\BOOKMARK [1][-]{section.1}{Introduction}{}% 1
\BOOKMARK [1][-]{section.2}{Empirical\040Model}{}% 2
\BOOKMARK [1][-]{section.3}{Data}{}% 3
\BOOKMARK [1][-]{section.4}{Results}{}% 4
\BOOKMARK [2][-]{subsection.4.1}{Primary\040Specification\040Regression\040Results}{section.4}% 5
\BOOKMARK [2][-]{subsection.4.2}{Effects\040by\040Gender}{section.4}% 6
\BOOKMARK [2][-]{subsection.4.3}{Effects\040of\040Individual\040Rounds}{section.4}% 7
\BOOKMARK [2][-]{subsection.4.4}{Effects\040Within\040Tournament\040Schools\040Across\040Years}{section.4}% 8
\BOOKMARK [1][-]{section.5}{Conclusion}{}% 9
\BOOKMARK [1][-]{appendix.A}{Constructing\040the\040Drinking\040Measures}{}% 10
